[
	{"Id_Matricula":1, "Id_Catecumeno":1, "Id_Nivel":1,"Id_Catequista":1,"Id_Representante":1,"Valor_Matricula":40.0,"Fecha_Matricula":"05/10/2021","Estado_Matricula":"Pagado","Restante_Matricula":0.0 },
    {"Id_Matricula":2, "Id_Catecumeno":2, "Id_Nivel":1,"Id_Catequista":1,"Id_Representante":2,"Valor_Matricula":40.0,"Fecha_Matricula":"05/10/2021","Estado_Matricula":"Pagado","Restante_Matricula":0.0 },
    {"Id_Matricula":3, "Id_Catecumeno":3, "Id_Nivel":1,"Id_Catequista":1,"Id_Representante":3,"Valor_Matricula":40.0,"Fecha_Matricula":"05/10/2021","Estado_Matricula":"Pagado","Restante_Matricula":0.0 },
    {"Id_Matricula":4, "Id_Catecumeno":4, "Id_Nivel":1,"Id_Catequista":1,"Id_Representante":4,"Valor_Matricula":40.0,"Fecha_Matricula":"05/10/2021","Estado_Matricula":"Pagado","Restante_Matricula":0.0 },
    {"Id_Matricula":5, "Id_Catecumeno":5, "Id_Nivel":1,"Id_Catequista":1,"Id_Representante":5,"Valor_Matricula":40.0,"Fecha_Matricula":"05/10/2021","Estado_Matricula":"Pagado","Restante_Matricula":0.0 },
    {"Id_Matricula":6, "Id_Catecumeno":6, "Id_Nivel":2,"Id_Catequista":2,"Id_Representante":1,"Valor_Matricula":45.0,"Fecha_Matricula":"05/10/2021","Estado_Matricula":"Pagado","Restante_Matricula":0.0 },
	{"Id_Matricula":7, "Id_Catecumeno":7, "Id_Nivel":2,"Id_Catequista":2,"Id_Representante":2,"Valor_Matricula":45.0,"Fecha_Matricula":"05/10/2021","Estado_Matricula":"Pagado","Restante_Matricula":0.0 },
	{"Id_Matricula":8, "Id_Catecumeno":8, "Id_Nivel":2,"Id_Catequista":2,"Id_Representante":3,"Valor_Matricula":45.0,"Fecha_Matricula":"05/10/2021","Estado_Matricula":"Pagado","Restante_Matricula":0.0 },
	{"Id_Matricula":9, "Id_Catecumeno":9, "Id_Nivel":2,"Id_Catequista":2,"Id_Representante":4,"Valor_Matricula":45.0,"Fecha_Matricula":"05/10/2021","Estado_Matricula":"Pagado","Restante_Matricula":0.0 },
	{"Id_Matricula":10, "Id_Catecumeno":10, "Id_Nivel":1,"Id_Catequista":1,"Id_Representante":5,"Valor_Matricula":40.0,"Fecha_Matricula":"05/10/2021","Estado_Matricula":"Pagado","Restante_Matricula":0.0 }
]

